…
    ## -- Column specification --------------------------------------------------------
    ## Delimiter: ","
    ## chr (2): Group, Litter Number
    ## dbl (6): GD0 weight, GD18 weight, GD of Birth, Pups born alive, Pups dead @ ...

    ## 
    ## i Use `spec()` to retrieve the full column specification for this data.
    ## i Specify the column types or set `show_col_types = FALSE` to quiet this message.

``` r
litters_df
```

    ## # A tibble: 49 x 9
    ##    litter_number   dose  day_of_tx gd0_weight gd18_weight gd_of_birth
    ##    <chr>           <chr> <chr>          <dbl>       <dbl>       <dbl>
    ##  1 #85             con   7               19.7        34.7          20
    ##  2 #1/2/95/2       con   7               27          42            19
    ##  3 #5/5/3/83/3-3   con   7               26          41.4          19
    ##  4 #5/4/2/95/2     con   7               28.5        44.1          19
    ##  5 #4/2/95/3-3     con   7               NA          NA            20
    ##  6 #2/2/95/3-2     con   7               NA          NA            20
    ##  7 #1/5/3/83/3-3/2 con   7               NA          NA            20
    ##  8 #3/83/3-3       con   8               NA          NA            20
    ##  9 #2/95/3         con   8               NA          NA            20
    ## 10 #3/5/2/2/95     con   8               28.5        NA            20
    ## # ... with 39 more rows, and 3 more variables: pups_born_alive <dbl>,
    ## #   pups_dead_birth <dbl>, pups_survive <dbl>
…
    ## -- Column specification --------------------------------------------------------
    ## Delimiter: ","
    ## chr (1): Litter Number
    ## dbl (5): Sex, PD ears, PD eyes, PD pivot, PD walk

    ## 
    ## i Use `spec()` to retrieve the full column specification for this data.
    ## i Specify the column types or set `show_col_types = FALSE` to quiet this message.

``` r
pups_df
```

    ## # A tibble: 313 x 6
    ##    litter_number sex   pd_ears pd_eyes pd_pivot pd_walk
    ##    <chr>         <chr>   <dbl>   <dbl>    <dbl>   <dbl>
    ##  1 #85           male        4      13        7      11
    ##  2 #85           male        4      13        7      12
    ##  3 #1/2/95/2     male        5      13        7       9
    ##  4 #1/2/95/2     male        5      13        8      10
    ##  5 #5/5/3/83/3-3 male        5      13        8      10
    ##  6 #5/5/3/83/3-3 male        5      14        6       9
    ##  7 #5/4/2/95/2   male       NA      14        5       9
    ##  8 #4/2/95/3-3   male        4      13        6       8
    ##  9 #4/2/95/3-3   male        4      13        7       9
    ## 10 #2/2/95/3-2   male        4      NA        8      10
    ## # ... with 303 more rows

Let’s join these up!

``` r
fas_df = 
  left_join(pups_df, litters_df, by = "litter_number") %>% 
  relocate(litter_number, dose, day_of_tx)
fas_df
```

    ## # A tibble: 313 x 14
    ##    litter_number dose  day_of_tx sex   pd_ears pd_eyes pd_pivot pd_walk
    ##    <chr>         <chr> <chr>     <chr>   <dbl>   <dbl>    <dbl>   <dbl>
    ##  1 #85           con   7         male        4      13        7      11
    ##  2 #85           con   7         male        4      13        7      12
    ##  3 #1/2/95/2     con   7         male        5      13        7       9
    ##  4 #1/2/95/2     con   7         male        5      13        8      10
    ##  5 #5/5/3/83/3-3 con   7         male        5      13        8      10
    ##  6 #5/5/3/83/3-3 con   7         male        5      14        6       9
    ##  7 #5/4/2/95/2   con   7         male       NA      14        5       9
    ##  8 #4/2/95/3-3   con   7         male        4      13        6       8
    ##  9 #4/2/95/3-3   con   7         male        4      13        7       9
    ## 10 #2/2/95/3-2   con   7         male        4      NA        8      10
    ## # ... with 303 more rows, and 6 more variables: gd0_weight <dbl>,
    ## #   gd18_weight <dbl>, gd_of_birth <dbl>, pups_born_alive <dbl>,
    ## #   pups_dead_birth <dbl>, pups_survive <dbl>
…
